{
    "id": 4435239,
    "@id": "http://schema.org/AlignmentObject",
    "name": "AlignmentObject",
    "title": "Alignment Object",
    "description": "An intangible item that describes an alignment between a learning resource and a node in an educational framework.",
    "hidden": false,
    "sealed": false,
    "inherits": "Intangible",
    "fields": [
        {
            "name": "id",
            "title": "ID",
            "description": "The identifier of the item.",
            "type": "Integer",
            "nullable": false,
            "primary": true
        },
        {
            "@id": "http://schema.org/targetDescription",
            "name": "targetDescription",
            "title": "Target Description",
            "description": "The description of a node in an established educational framework.",
            "type": "Text"
        },
        {
            "@id": "http://schema.org/alignmentType",
            "name": "alignmentType",
            "title": "Alignment Type",
            "description": "A category of alignment between the learning resource and the framework node. Recommended values include: 'assesses', 'teaches', 'requires', 'textComplexity', 'readingLevel', 'educationalSubject', and 'educationLevel'.",
            "type": "Text"
        },
        {
            "@id": "http://schema.org/targetUrl",
            "name": "targetUrl",
            "title": "Target Url",
            "description": "The URL of a node in an established educational framework.",
            "type": "URL"
        },
        {
            "@id": "http://schema.org/targetName",
            "name": "targetName",
            "title": "Target Name",
            "description": "The name of a node in an established educational framework.",
            "type": "Text"
        },
        {
            "@id": "http://schema.org/educationalFramework",
            "name": "educationalFramework",
            "title": "Educational Framework",
            "description": "The framework to which the resource being described is aligned.",
            "type": "Text"
        }
    ],
    "privileges": [
        {
            "mask": 15,
            "type": "global"
        }
    ]
}