{
    "id": 3798613,
    "@id": "http://schema.org/CreativeWork",
    "name": "CreativeWork",
    "title": "Creative Work",
    "description": "The most generic kind of creative work, including books, movies, photographs, software programs, etc.",
    "hidden": false,
    "sealed": false,
    "inherits": "Thing",
    "version": "1.1",
    "fields": [
        {
            "name": "id",
            "title": "ID",
            "description": "The identifier of the item.",
            "type": "Integer",
            "nullable": false,
            "primary": true
        },
        {
            "@id": "http://schema.org/about",
            "name": "about",
            "title": "About",
            "description": "The subject matter of the content.",
            "type": "Thing"
        },
        {
            "@id": "http://schema.org/educationalAlignment",
            "name": "educationalAlignment",
            "title": "Educational Alignment",
            "description": "An alignment to an established educational framework.",
            "type": "AlignmentObject"
        },
        {
            "@id": "http://schema.org/associatedMedia",
            "name": "associatedMedia",
            "title": "Associated Media",
            "description": "A media object that encodes this CreativeWork. This property is a synonym for encoding.",
            "type": "MediaObject"
        },
        {
            "@id": "http://schema.org/funder",
            "name": "funder",
            "title": "Funder",
            "description": "A person or organization that supports (sponsors) something through some kind of financial contribution.",
            "type": "Party"
        },
        {
            "@id": "http://schema.org/position",
            "name": "position",
            "title": "Position",
            "description": "The position of an item in a series or sequence of items.",
            "type": "Text"
        },
        {
            "@id": "http://schema.org/sponsor",
            "name": "sponsor",
            "title": "Sponsor",
            "description": "A person or organization that supports a thing through a pledge, promise, or financial contribution. e.g. a sponsor of a Medical Study or a corporate sponsor of an event.",
            "type": "Party"
        },
        {
            "@id": "http://schema.org/audio",
            "name": "audio",
            "title": "Audio",
            "description": "An embedded audio object.",
            "type": "AudioObject"
        },
        {
            "@id": "http://schema.org/workExample",
            "name": "workExample",
            "title": "Work Example",
            "description": "Example/instance/realization/derivation of the concept of this creative work. eg. The paperback edition, first edition, or eBook.",
            "type": "CreativeWork"
        },
        {
            "@id": "http://schema.org/provider",
            "name": "provider",
            "title": "Provider",
            "description": "The service provider, service operator, or service performer; the goods producer. Another party (a seller) may offer those services or goods on behalf of the provider. A provider may also serve as the seller.",
            "type": "Party"
        },
        {
            "@id": "http://schema.org/encoding",
            "name": "encoding",
            "title": "Encoding",
            "description": "A media object that encodes this CreativeWork. This property is a synonym for associatedMedia.",
            "type": "MediaObject"
        },
        {
            "@id": "http://schema.org/interactivityType",
            "name": "interactivityType",
            "title": "Interactivity Type",
            "description": "The predominant mode of learning supported by the learning resource. Acceptable values are 'active', 'expositive', or 'mixed'.",
            "type": "Text"
        },
        {
            "@id": "http://schema.org/character",
            "name": "character",
            "title": "Character",
            "description": "Fictional person connected with a creative work.",
            "type": "Person"
        },
        {
            "@id": "http://schema.org/audience",
            "name": "audience",
            "title": "Audience",
            "description": "An intended audience, i.e. a group for whom something was created.",
            "type": "Audience"
        },
        {
            "@id": "http://schema.org/sourceOrganization",
            "name": "sourceOrganization",
            "title": "Source Organization",
            "description": "The Organization on whose behalf the creator was working.",
            "type": "Organization"
        },
        {
            "@id": "http://schema.org/isPartOf",
            "name": "isPartOf",
            "title": "Is Part Of",
            "description": "Indicates a CreativeWork that this CreativeWork is (in some sense) part of.",
            "type": "CreativeWork"
        },
        {
            "@id": "http://schema.org/video",
            "name": "video",
            "title": "Video",
            "description": "An embedded video object.",
            "type": "VideoObject"
        },
        {
            "@id": "http://schema.org/publication",
            "name": "publication",
            "title": "Publication",
            "description": "A publication event associated with the item.",
            "type": "PublicationEvent"
        },
        {
            "@id": "http://schema.org/text",
            "name": "text",
            "title": "Text",
            "description": "The textual content of this CreativeWork.",
            "type": "Text"
        },
        {
            "@id": "http://schema.org/contributor",
            "name": "contributor",
            "title": "Contributor",
            "description": "A secondary contributor to the CreativeWork or Event.",
            "type": "Party"
        },
        {
            "@id": "http://schema.org/publisher",
            "name": "publisher",
            "title": "Publisher",
            "description": "The publisher of the creative work.",
            "type": "Organization"
        },
        {
            "@id": "http://schema.org/typicalAgeRange",
            "name": "typicalAgeRange",
            "title": "Typical Age Range",
            "description": "The typical expected age range, e.g. '7-9', '11-'.",
            "type": "Text"
        },
        {
            "@id": "http://schema.org/releasedEvent",
            "name": "releasedEvent",
            "title": "Released Event",
            "description": "The place and time the release was issued, expressed as a PublicationEvent.",
            "type": "PublicationEvent"
        },
        {
            "@id": "http://schema.org/contentLocation",
            "name": "contentLocation",
            "title": "Content Location",
            "description": "The location depicted or described in the content. For example, the location in a photograph or painting.",
            "type": "Place"
        },
        {
            "@id": "http://schema.org/schemaVersion",
            "name": "schemaVersion",
            "title": "Schema Version",
            "description": "Indicates (by URL or string) a particular version of a schema used in some CreativeWork. For example, a document could declare a schemaVersion using an URL such as http://schema.org/version/2.0/ if precise indication of schema version was required by some application.",
            "type": "Text"
        },
        {
            "@id": "http://schema.org/accessibilityFeature",
            "name": "accessibilityFeature",
            "title": "Accessibility Feature",
            "description": "Content features of the resource, such as accessible media, alternatives and supported enhancements for accessibility (<a href=\"http://www.w3.org/wiki/WebSchemas/Accessibility\">WebSchemas wiki lists possible values</a>).",
            "type": "Text"
        },
        {
            "@id": "http://schema.org/aggregateRating",
            "name": "aggregateRating",
            "title": "Aggregate Rating",
            "description": "The overall rating, based on a collection of reviews or ratings, of the item.",
            "type": "AggregateRating"
        },
        {
            "@id": "http://schema.org/locationCreated",
            "name": "locationCreated",
            "title": "Location Created",
            "description": "The location where the CreativeWork was created, which may not be the same as the location depicted in the CreativeWork.",
            "type": "Place"
        },
        {
            "@id": "http://schema.org/temporalCoverage",
            "name": "temporalCoverage",
            "title": "Temporal Coverage",
            "description": "The temporalCoverage of a CreativeWork indicates the period that the content applies to, i.e. that it describes, either as a DateTime or as a textual string indicating a time period in <a href=\"https://en.wikipedia.org/wiki/ISO_8601#Time_intervals\">ISO 8601 time interval format</a>. In\n      the case of a Dataset it will typically indicate the relevant time period in a precise notation (e.g. for a 2011 census dataset, the year 2011 would be written \"2011/2012\"). Other forms of content e.g. ScholarlyArticle, Book, TVSeries or TVEpisode may indicate their temporalCoverage in broader terms - textually or via well-known URL.\n      Written works such as books may sometimes have precise temporal coverage too, e.g. a work set in 1939 - 1945 can be indicated in ISO 8601 interval format format via \"1939/1945\".",
            "type": "URL"
        },
        {
            "@id": "http://schema.org/accountablePerson",
            "name": "accountablePerson",
            "title": "Accountable Person",
            "description": "Specifies the Person that is legally accountable for the CreativeWork.",
            "type": "Person"
        },
        {
            "@id": "http://schema.org/spatialCoverage",
            "name": "spatialCoverage",
            "title": "Spatial Coverage",
            "description": "The spatialCoverage of a CreativeWork indicates the place(s) which are the focus of the content. It is a subproperty of\n      contentLocation intended primarily for more technical and detailed materials. For example with a Dataset, it indicates\n      areas that the dataset describes: a dataset of New York weather would have spatialCoverage which was the place: the state of New York.",
            "type": "Place"
        },
        {
            "@id": "http://schema.org/reviews",
            "name": "reviews",
            "title": "Reviews",
            "description": "Review of the item.",
            "type": "Review",
            "many": true
        },
        {
            "@id": "http://schema.org/offers",
            "name": "offers",
            "title": "Offers",
            "description": "An offer to provide this item&#x2014;for example, an offer to sell a product, rent the DVD of a movie, perform a service, or give away tickets to an event.",
            "type": "Offer",
            "many": true
        },
        {
            "@id": "http://schema.org/editor",
            "name": "editor",
            "title": "Editor",
            "description": "Specifies the Person who edited the CreativeWork.",
            "type": "Person"
        },
        {
            "@id": "http://schema.org/discussionUrl",
            "name": "discussionUrl",
            "title": "Discussion Url",
            "description": "A link to the page containing the comments of the CreativeWork.",
            "type": "URL"
        },
        {
            "@id": "http://schema.org/award",
            "name": "award",
            "title": "Award",
            "description": "An award won by or for this item.",
            "type": "Text"
        },
        {
            "@id": "http://schema.org/copyrightHolder",
            "name": "copyrightHolder",
            "title": "Copyright Holder",
            "description": "The party holding the legal copyright to the CreativeWork.",
            "type": "Party"
        },
        {
            "@id": "http://schema.org/accessibilityHazard",
            "name": "accessibilityHazard",
            "title": "Accessibility Hazard",
            "description": "A characteristic of the described resource that is physiologically dangerous to some users. Related to WCAG 2.0 guideline 2.3 (<a href=\"http://www.w3.org/wiki/WebSchemas/Accessibility\">WebSchemas wiki lists possible values</a>).",
            "type": "Text"
        },
        {
            "@id": "http://schema.org/copyrightYear",
            "name": "copyrightYear",
            "title": "Copyright Year",
            "description": "The year during which the claimed copyright for the CreativeWork was first asserted.",
            "type": "Number"
        },
        {
            "@id": "http://schema.org/awards",
            "name": "awards",
            "title": "Awards",
            "description": "Awards won by or for this item.",
            "type": "Text"
        },
        {
            "@id": "http://schema.org/recordedAt",
            "name": "recordedAt",
            "title": "Recorded At",
            "description": "The Event where the CreativeWork was recorded. The CreativeWork may capture all or part of the event.",
            "type": "Event"
        },
        {
            "@id": "http://schema.org/commentCount",
            "name": "commentCount",
            "title": "Comment Count",
            "description": "The number of comments this CreativeWork (e.g. Article, Question or Answer) has received. This is most applicable to works published in Web sites with commenting system; additional comments may exist elsewhere.",
            "type": "Integer"
        },
        {
            "@id": "http://schema.org/fileFormat",
            "name": "fileFormat",
            "title": "File Format",
            "description": "Media type, typically MIME format (see <a href=\"http://www.iana.org/assignments/media-types/media-types.xhtml\">IANA site</a>) of the content e.g. application/zip of a SoftwareApplication binary. In cases where a CreativeWork has several media type representations, 'encoding' can be used to indicate each MediaObject alongside particular fileFormat information. Unregistered or niche file formats can be indicated instead via the most appropriate URL, e.g. defining Web page or a Wikipedia entry.",
            "type": "URL"
        },
        {
            "@id": "http://schema.org/inLanguage",
            "name": "inLanguage",
            "title": "In Language",
            "description": "The language of the content or performance or used in an action. Please use one of the language codes from the <a href=\"http://tools.ietf.org/html/bcp47\">IETF BCP 47 standard</a>. See also <a class=\"localLink\" href=\"/availableLanguage\">availableLanguage</a>.",
            "type": "Language"
        },
        {
            "@id": "http://schema.org/accessibilityAPI",
            "name": "accessibilityAPI",
            "title": "Accessibility API",
            "description": "Indicates that the resource is compatible with the referenced accessibility API (<a href=\"http://www.w3.org/wiki/WebSchemas/Accessibility\">WebSchemas wiki lists possible values</a>).",
            "type": "Text"
        },
        {
            "@id": "http://schema.org/interactionStatistic",
            "name": "interactionStatistic",
            "title": "Interaction Statistic",
            "description": "The number of interactions for the CreativeWork using the WebSite or SoftwareApplication. The most specific child type of InteractionCounter should be used.",
            "type": "InteractionCounter"
        },
        {
            "@id": "http://schema.org/contentRating",
            "name": "contentRating",
            "title": "Content Rating",
            "description": "Official rating of a piece of content&#x2014;for example,'MPAA PG-13'.",
            "type": "Text"
        },
        {
            "@id": "http://schema.org/learningResourceType",
            "name": "learningResourceType",
            "title": "Learning Resource Type",
            "description": "The predominant type or kind characterizing the learning resource. For example, 'presentation', 'handout'.",
            "type": "Text"
        },
        {
            "@id": "http://schema.org/isFamilyFriendly",
            "name": "isFamilyFriendly",
            "title": "Is Family Friendly",
            "description": "Indicates whether this content is family friendly.",
            "type": "Boolean"
        },
        {
            "@id": "http://schema.org/exampleOfWork",
            "name": "exampleOfWork",
            "title": "Example Of Work",
            "description": "A creative work that this work is an example/instance/realization/derivation of.",
            "type": "CreativeWork"
        },
        {
            "@id": "http://schema.org/version",
            "name": "version",
            "title": "Version",
            "description": "The version of the CreativeWork embodied by a specified resource.",
            "type": "Text"
        },
        {
            "@id": "http://schema.org/dateModified",
            "name": "dateModified",
            "title": "Date Modified",
            "description": "The date on which the CreativeWork was most recently modified or when the item's entry was modified within a DataFeed.",
            "type": "DateTime"
        },
        {
            "@id": "http://schema.org/mainEntity",
            "name": "mainEntity",
            "title": "Main Entity",
            "description": "Indicates the primary entity described in some page or other CreativeWork.",
            "type": "Thing"
        },
        {
            "@id": "http://schema.org/genre",
            "name": "genre",
            "title": "Genre",
            "description": "Genre of the creative work or group.",
            "type": "Text"
        },
        {
            "@id": "http://schema.org/keywords",
            "name": "keywords",
            "title": "Keywords",
            "description": "Keywords or tags used to describe this content. Multiple entries in a keywords list are typically delimited by commas.",
            "type": "Text"
        },
        {
            "@id": "http://schema.org/author",
            "name": "author",
            "title": "Author",
            "description": "The author of this content or rating. Please note that author is special in that HTML 5 provides a special mechanism for indicating authorship via the rel tag. That is equivalent to this and may be used interchangeably.",
            "type": "Person"
        },
        {
            "@id": "http://schema.org/encodings",
            "name": "encodings",
            "title": "Encodings",
            "description": "A media object that encodes this CreativeWork.",
            "type": "MediaObject",
            "many": false
        },
        {
            "@id": "http://schema.org/isBasedOnUrl",
            "name": "isBasedOnUrl",
            "title": "Is Based On Url",
            "description": "A resource that was used in the creation of this resource. This term can be repeated for multiple sources. For example, http://example.com/great-multiplication-intro.html.",
            "type": "URL"
        },
        {
            "@id": "http://schema.org/alternativeHeadline",
            "name": "alternativeHeadline",
            "title": "Alternative Headline",
            "description": "A secondary title of the CreativeWork.",
            "type": "Text"
        },
        {
            "@id": "http://schema.org/timeRequired",
            "name": "timeRequired",
            "title": "Time Required",
            "description": "Approximate or typical time it takes to work with or through this learning resource for the typical intended target audience, e.g. 'P30M', 'P1H25M'.",
            "type": "Duration"
        },
        {
            "@id": "http://schema.org/translator",
            "name": "translator",
            "title": "Translator",
            "description": "Organization or person who adapts a creative work to different languages, regional differences and technical requirements of a target market, or that translates during some event.",
            "type": "Party"
        },
        {
            "@id": "http://schema.org/thumbnailUrl",
            "name": "thumbnailUrl",
            "title": "Thumbnail Url",
            "description": "A thumbnail image relevant to the Thing.",
            "type": "URL"
        },
        {
            "@id": "http://schema.org/hasPart",
            "name": "hasPart",
            "title": "Has Part",
            "description": "Indicates a CreativeWork that is (in some sense) a part of this CreativeWork.",
            "type": "CreativeWork"
        },
        {
            "@id": "http://schema.org/comment",
            "name": "comment",
            "title": "Comment",
            "description": "Comments, typically from users.",
            "type": "Comment"
        },
        {
            "@id": "http://schema.org/review",
            "name": "review",
            "title": "Review",
            "description": "A review of the item.",
            "type": "Review"
        },
        {
            "@id": "http://schema.org/license",
            "name": "license",
            "title": "License",
            "description": "A license document that applies to this content, typically indicated by URL.",
            "type": "CreativeWork"
        },
        {
            "@id": "http://schema.org/accessibilityControl",
            "name": "accessibilityControl",
            "title": "Accessibility Control",
            "description": "Identifies input methods that are sufficient to fully control the described resource (<a href=\"http://www.w3.org/wiki/WebSchemas/Accessibility\">WebSchemas wiki lists possible values</a>).",
            "type": "Text"
        },
        {
            "@id": "http://schema.org/headline",
            "name": "headline",
            "title": "Headline",
            "description": "Headline of the article.",
            "type": "Text"
        },
        {
            "@id": "http://schema.org/isBasedOn",
            "name": "isBasedOn",
            "title": "Is Based On",
            "description": "A resource that was used in the creation of this resource. This term can be repeated for multiple sources. For example, http://example.com/great-multiplication-intro.html.",
            "type": "Product"
        },
        {
            "@id": "http://schema.org/creator",
            "name": "creator",
            "title": "Creator",
            "description": "The creator/author of this CreativeWork. This is the same as the Author property for CreativeWork.",
            "type": "Person"
        },
        {
            "@id": "http://schema.org/publishingPrinciples",
            "name": "publishingPrinciples",
            "title": "Publishing Principles",
            "description": "Link to page describing the editorial principles of the organization primarily responsible for the creation of the CreativeWork.",
            "type": "URL"
        },
        {
            "@id": "http://schema.org/producer",
            "name": "producer",
            "title": "Producer",
            "description": "The person or organization who produced the work (e.g. music album, movie, tv/radio series etc.).",
            "type": "Person"
        },
        {
            "@id": "http://schema.org/mentions",
            "name": "mentions",
            "title": "Mentions",
            "description": "Indicates that the CreativeWork contains a reference to, but is not necessarily about a concept.",
            "type": "Thing",
            "many": true
        },
        {
            "@id": "http://schema.org/dateCreated",
            "name": "dateCreated",
            "title": "Date Created",
            "description": "The date on which the CreativeWork was created or the item was added to a DataFeed.",
            "type": "DateTime"
        },
        {
            "@id": "http://schema.org/educationalUse",
            "name": "educationalUse",
            "title": "Educational Use",
            "description": "The purpose of a work in the context of education; for example, 'assignment', 'group work'.",
            "type": "Text"
        },
        {
            "@id": "http://schema.org/datePublished",
            "name": "datePublished",
            "title": "Date Published",
            "description": "Date of first broadcast/publication.",
            "type": "Date"
        },
        {
            "@id": "http://schema.org/isAccessibleForFree",
            "name": "isAccessibleForFree",
            "title": "Is Accessible For Free",
            "description": "A flag to signal that the publication is accessible for free.",
            "type": "Boolean"
        },
        {
            "@id": "http://schema.org/citation",
            "name": "citation",
            "title": "Citation",
            "description": "A citation or reference to another creative work, such as another publication, web page, scholarly article, etc.",
            "type": "Text"
        },
        {
            "@id": "http://schema.org/accessibilitySummary",
            "name": "accessibilitySummary",
            "title": "Accessibility Summary",
            "description": "A human-readable summary of specific accessibility features or deficiencies, consistent with the other accessibility metadata but expressing subtleties such as \"short descriptions are present but long descriptions will be needed for non-visual users\" or \"short descriptions are present and no long descriptions are needed.\"",
            "type": "Text"
        },
        {
            "@id": "http://schema.org/contentReferenceTime",
            "name": "contentReferenceTime",
            "title": "Content Reference Time",
            "description": "The specific time described by a creative work, for works (e.g. articles, video objects etc.) that emphasise a particular moment within an Event.",
            "type": "DateTime"
        },
        {
            "@id": "http://schema.org/accessModeSufficient",
            "name": "accessModeSufficient",
            "title": "Access Mode Sufficient",
            "description": "A list of single or combined accessModes that are sufficient to understand all the intellectual content of a resource. Expected values include:  auditory, tactile, textual, visual.",
            "type": "Text"
        },
        {
            "@id": "http://schema.org/accessMode",
            "name": "accessMode",
            "title": "Access Mode",
            "description": "The human sensory perceptual system or cognitive faculty through which a person may process or perceive information. Expected values include: auditory, tactile, textual, visual, colorDependent, chartOnVisual, chemOnVisual, diagramOnVisual, mathOnVisual, musicOnVisual, textOnVisual.",
            "type": "Text"
        },
        {
            "@id": "http://schema.org/publisherImprint",
            "name": "publisherImprint",
            "title": "Publisher Imprint",
            "description": "The publishing division which published the comic.",
            "type": "Organization"
        },
        {
            "@id": "http://schema.org/translator",
            "name": "translator",
            "title": "Translator",
            "description": "An agent responsible for rendering a translated work from a source work",
            "type": "Person"
        },
        {
            "@id": "http://schema.org/workTranslation",
            "name": "workTranslation",
            "title": "Work Translation",
            "description": "A work that is a translation of the content of this work. e.g. 西遊記 has an English workTranslation “Journey to the West”,a German workTranslation “Monkeys Pilgerfahrt” and a Vietnamese  translation Tây du ký bình khảo.",
            "type": "CreativeWork"
        },
        {
            "@id": "http://schema.org/translationOfWork",
            "name": "translationOfWork",
            "title": "Translation Of Work",
            "description": "The work that this work has been translated from. e.g. 物种起源 is a translationOf “On the Origin of Species”",
            "type": "CreativeWork"
        }
    ],
    "privileges": [
        {
            "mask": 15,
            "type": "global"
        }
    ]
}